Chapter 17 Create recipe and roles | Advanced Analytics with Tidymodels in R
…
17.1 Create features

Now we can start adding steps onto our recipe using the pipe operator.

17.1.1 Date

Perhaps it is reasonable for the date of the flight to have an effect on the likelihood of a late arrival. A little bit of feature engineering might go a long way to improving our model. How should the date be encoded into the model? The date column has an R date object so including that column “as is” will mean that the model will convert it to a numeric format equal to the number of days after a reference date:

flight_data %>% 
  distinct(date) %>% 
  mutate(numeric_date = as.numeric(date)) 

## # A tibble: 364 x 2
##    date       numeric_date
##    <date>            <dbl>
##  1 2013-05-03        15828
##  2 2013-03-04        15768
##  3 2013-02-20        15756
##  4 2013-04-02        15797
##  5 2013-06-13        15869
##  6 2013-02-21        15757
##  7 2013-05-08        15833
##  8 2013-10-21        15999
##  9 2013-11-12        16021
## 10 2013-09-12        15960
## # … with 354 more rows
…
