Chapter 19 Recipe and Models | Advanced Analytics with Tidymodels in R
…
19.3 Model recipe objects

The objects above have the finalized recipe and fitted model objects inside. You may want to extract the model or recipe objects from the workflow. To do this, you can use the helper functions pull_workflow_fit() and pull_workflow_prepped_recipe().

For example, here we pull the fitted model object then use the broom::tidy() function to get a tidy tibble of the Logisitc Regression model coefficients.

19.3.1 Logistic regression

flights_fit_lr_mode %>% 
  pull_workflow_fit() %>% 
  tidy()

## # A tibble: 148 x 5
##    term                         estimate   std.error statistic  p.value
##    <chr>                           <dbl>       <dbl>     <dbl>    <dbl>
##  1 (Intercept)                  32.7     702.           0.0466 9.63e- 1
##  2 dep_time                     -0.00171   0.0000832  -20.5    8.07e-94
##  3 air_time                     -0.0493    0.00337    -14.6    2.28e-48
##  4 date_USChristmasDay          -0.401     0.613       -0.654  5.13e- 1
##  5 date_USColumbusDay           13.0     274.           0.0472 9.62e- 1
##  6 date_USCPulaskisBirthday      0.925     0.765        1.21   2.27e- 1
##  7 date_USDecorationMemorialDay  0.0642    0.579        0.111  9.12e- 1
##  8 date_USElectionDay            1.12      1.07         1.05   2.95e- 1
##  9 date_USGoodFriday             0.149     0.713        0.209  8.34e- 1
## 10 date_USInaugurationDay        0.450     1.06         0.425  6.71e- 1
## # … with 138 more rows
…
